{
   "popularCountries2" : {
      "columns" : [
         {
            "id" : "rank",
            "align" : "center",
            "name" : "Rank"
         },
         {
            "name" : "Area",
            "id" : "area",
            "align" : "left"
         },
         {
            "name" : "Visits",
            "align" : "center",
            "id" : "visits"
         }
      ],
      "data" : [
         {
            "visits" : 6,
            "rank" : 8,
            "area" : "Slovakia"
         },
         {
            "area" : "Czech Republic",
            "visits" : 1,
            "rank" : 9
         },
         {
            "area" : "France",
            "visits" : 1,
            "rank" : 10
         },
         {
            "visits" : 1,
            "rank" : 11,
            "area" : "New Zealand"
         },
         {
            "visits" : 1,
            "rank" : 12,
            "area" : "Poland"
         },
         {
            "rank" : 13,
            "visits" : 1,
            "area" : "Romania"
         }
      ]
   },
   "samelineViews" : {
      "UCeAVOjxKK-ocLkp4OejC98Q" : 1,
      "UCzWBgBzdmqwxtsyjukEaLHA" : 1,
      "UCdWpMDmubQEJJ9XfXSsNaGA" : 4,
      "UCSUvMqYICfPDGplqsC34xCg" : 3,
      "UCPWmPN0Vehv1ACMZZGl05gg" : 1,
      "UCsOjem8JevW0FKTWvaS6cyw" : 1,
      "UCrEt_rDwQj4H0SgU_kitZ8w" : 1,
      "UCYM6pUVS71WLyMI6o5DRpkA" : 2,
      "UCAjtdEz1b9dCxnwuxdICTfg" : 1
   },
   "topLocks" : {
      "data" : [],
      "columns" : [
         {
            "align" : "center",
            "id" : "rank",
            "name" : "Rank"
         },
         {
            "id" : "name",
            "align" : "left",
            "name" : "Name"
         },
         {
            "name" : "Version",
            "align" : "left",
            "id" : "version"
         },
         {
            "name" : "Views",
            "id" : "views",
            "align" : "center"
         }
      ],
      "title" : "Most Popular Locks"
   },
   "pageViews" : [
      {
         "data" : [
            {
               "y" : null,
               "x" : "2024-05-27"
            },
            {
               "x" : "2024-06-03",
               "y" : 699
            },
            {
               "x" : "2024-06-10",
               "y" : 699
            }
         ],
         "id" : "Page Views"
      }
   ],
   "traffic28days" : {
      "columns" : [
         {
            "name" : "Weekend",
            "id" : "weekend",
            "align" : "hidden"
         },
         {
            "name" : "Date",
            "align" : "left",
            "id" : "date"
         },
         {
            "id" : "dateString",
            "align" : "left",
            "name" : "Date"
         },
         {
            "name" : "Visitors",
            "id" : "visitors",
            "align" : "center"
         },
         {
            "id" : "visits",
            "align" : "center",
            "name" : "Visits"
         },
         {
            "name" : "Views",
            "id" : "lockViews",
            "align" : "center"
         },
         {
            "align" : "center",
            "id" : "pageViews",
            "name" : "Views"
         }
      ],
      "title" : "",
      "data" : [
         {
            "weekend" : 1,
            "dateString" : "06/02",
            "lockViews" : 0,
            "pageViews" : 0,
            "visits" : 2,
            "date" : "2024-06-02",
            "visitors" : 1
         },
         {
            "pageViews" : 31,
            "visits" : 60,
            "weekend" : 0,
            "dateString" : "06/03",
            "lockViews" : 0,
            "visitors" : 1,
            "date" : "2024-06-03"
         },
         {
            "visitors" : 2,
            "date" : "2024-06-04",
            "visits" : 64,
            "pageViews" : 30,
            "lockViews" : 0,
            "dateString" : "06/04",
            "weekend" : 0
         },
         {
            "visitors" : 2,
            "date" : "2024-06-05",
            "pageViews" : 13,
            "visits" : 32,
            "weekend" : 0,
            "dateString" : "06/05",
            "lockViews" : 3
         },
         {
            "pageViews" : 20,
            "visits" : 45,
            "weekend" : 0,
            "lockViews" : 12,
            "dateString" : "06/06",
            "visitors" : 13,
            "date" : "2024-06-06"
         },
         {
            "weekend" : 0,
            "lockViews" : 0,
            "dateString" : "06/07",
            "pageViews" : 107,
            "visits" : 49,
            "date" : "2024-06-07",
            "visitors" : 10
         },
         {
            "visitors" : 14,
            "date" : "2024-06-08",
            "visits" : 70,
            "pageViews" : 157,
            "dateString" : "06/08",
            "lockViews" : 0,
            "weekend" : 1
         },
         {
            "date" : "2024-06-09",
            "visitors" : 23,
            "weekend" : 1,
            "lockViews" : 0,
            "dateString" : "06/09",
            "pageViews" : 341,
            "visits" : 135
         },
         {
            "dateString" : "06/10",
            "lockViews" : 0,
            "weekend" : 0,
            "visits" : 38,
            "pageViews" : 89,
            "date" : "2024-06-10",
            "visitors" : 9
         },
         {
            "date" : "2024-06-11",
            "visitors" : 4,
            "weekend" : 0,
            "dateString" : "06/11",
            "lockViews" : 0,
            "pageViews" : 14,
            "visits" : 6
         },
         {
            "weekend" : 0,
            "lockViews" : 0,
            "dateString" : "06/12",
            "pageViews" : 102,
            "visits" : 45,
            "date" : "2024-06-12",
            "visitors" : 4
         },
         {
            "date" : "2024-06-13",
            "visitors" : 4,
            "lockViews" : 0,
            "dateString" : "06/13",
            "weekend" : 0,
            "visits" : 113,
            "pageViews" : 259
         },
         {
            "pageViews" : 112,
            "visits" : 17,
            "weekend" : 0,
            "dateString" : "06/14",
            "lockViews" : 0,
            "visitors" : 2,
            "date" : "2024-06-14"
         },
         {
            "date" : "2024-06-15",
            "visitors" : 3,
            "dateString" : "06/15",
            "lockViews" : 0,
            "weekend" : 1,
            "visits" : 34,
            "pageViews" : 66
         },
         {
            "visitors" : 3,
            "date" : "2024-06-16",
            "pageViews" : 57,
            "visits" : 26,
            "weekend" : 1,
            "dateString" : "06/16",
            "lockViews" : 0
         }
      ]
   },
   "openedUrls" : {
      "www.youtube.com/channel/UCX56O2bbhq0E-EzXrztA7VA?view_as=subscriber" : 1,
      "www.youtube.com/@LockPickersUnited" : 1,
      "www.youtube.com/channel/UC0hS4z3VCga51rgb0uE44qw?view_as=subscriber" : 1,
      "www.youtube.com/@affinity3470" : 2,
      "www.youtube.com/channel/UClYCcqqjCUIeCSiEkezW42A?view_as=subscriber" : 1,
      "www.youtube.com/@peaceweaponpt" : 1,
      "www.youtube.com/channel/UCpdMakUyLgC-MzrGH1NoH0g?view_as=subscriber" : 1,
      "www.youtube.com/channel/UCloseNEb6epWL36Ap_zZmow?view_as=subscriber" : 1,
      "www.youtube.com/channel/UC3lz4hFdwF-Eol1qJoyfMkA?view_as=subscriber" : 1,
      "www.youtube.com/channel/UCm9K6rby98W8JigLoZOh6FQ?view_as=subscriber" : 1,
      "www.youtube.com/channel/UClXLxqirpN4bDNNhAyrOneA?view_as=subscriber" : 1,
      "www.youtube.com/channel/UCQWfAslkbdp6nl0mz8ywCRw?view_as=subscriber" : 1,
      "www.youtube.com/channel/UCxZRF3OG7gapQ8kacWUwj2A?view_as=subscriber" : 1,
      "lpulocks.com" : 1,
      "www.youtube.com/channel/UCrder9McXu25m8VS0NQZNgA?view_as=subscriber" : 1,
      "www.youtube.com/@senorsilky" : 1,
      "www.youtube.com/channel/UC_PyPUk9mBRmDAicJI-03Eg?view_as=subscriber" : 1,
      "www.youtube.com/channel/UCqP38s7_XwQHt3fwoqBvbkg?view_as=subscriber" : 1,
      "www.youtube.com/@truckinglock" : 2,
      "www.youtube.com/channel/UCAjtdEz1b9dCxnwuxdICTfg" : 1,
      "www.youtube.com/channel/UCQbp7Dr48mLlVkn6oJTVdvw?view_as=subscriber" : 1,
      "www.youtube.com/channel/UCNMj5TTgFa-nWPylejm2l5g?view_as=subscriber" : 1,
      "www.youtube.com/channel/UCp1orOGJwZvjLAvckyxC4Nw?view_as=subscriber" : 1,
      "www.youtube.com/channel/UCHEPEHbo6kAxsxvIePE9kRw?view_as=subscriber" : 1,
      "www.youtube.com/channel/UC7UO6EE5W_C1S4nnitGsZ_A?view_as=subscriber" : 1,
      "www.youtube.com/channel/UCotHe-s6FDnGwbQAlcqxpHA?view_as=subscriber" : 1,
      "www.youtube.com/channel/UCBfuitaQZGgAvaaqiDqTvFA?view_as=subscriber" : 1,
      "www.youtube.com/channel/UCgsNWtGhWOlabLIBzBzbD8A" : 1,
      "www.youtube.com/channel/UCht5SSqIBBnZPaCL5-GCsyw?view_as=subscriber" : 1,
      "www.youtube.com/channel/UCSUvMqYICfPDGplqsC34xCg?view_as=subscriber" : 1,
      "www.youtube.com/channel/UCE53zbLlZQosuMvQth87e4Q?view_as=subscriber" : 1,
      "www.youtube.com/@sandman_locksport" : 2,
      "www.youtube.com/channel/UCBDpLXSbLHkPVocZgMuBTMw?view_as=subscriber" : 1,
      "www.youtube.com/@jackthepicker" : 1,
      "www.youtube.com/channel/UCShAtKvq9U5uEggdwFUrdLQ?view_as=subscriber" : 1,
      "www.youtube.com/@albazarkft" : 1,
      "www.youtube.com/@hvlogic" : 1,
      "www.youtube.com/channel/UCJdyxxvvMuV2V0ZeYWQl9Wg?view_as=subscriber" : 1,
      "www.youtube.com/channel/UC6j3vY77jqqWclEZ-UkBoQw?view_as=subscriber" : 1,
      "www.youtube.com/channel/UCdJlIoWR3mf7apfB1dXS97A" : 1,
      "www.youtube.com/channel/UCAjtdEz1b9dCxnwuxdICTfg?view_as=subscriber" : 1,
      "www.youtube.com/channel/UCMapdYQFmzqCKCokQFMr81g?view_as=subscriber" : 1,
      "www.youtube.com/@septclues" : 1,
      "www.youtube.com/@xvinty" : 2,
      "www.youtube.com/@blondihacks" : 1,
      "www.youtube.com/@-dq-" : 1,
      "www.youtube.com/channel/UCwGnrdS4TxV8nPpZtG2uHtw?view_as=subscriber" : 1,
      "www.youtube.com/@thelockpicker1969" : 2,
      "www.youtube.com/@dmaclocksport" : 2,
      "www.youtube.com/channel/UC7xu67fdc05csZUNstB3loA?view_as=subscriber" : 1,
      "www.youtube.com/channel/UCfFT2uibPuoj_Vq8uzGUN-w?view_as=subscriber" : 1,
      "www.youtube.com/channel/UCgsNWtGhWOlabLIBzBzbD8A?view_as=subscriber" : 1,
      "www.youtube.com/channel/UCRAMhpiDrCkLmC-V-EamMTA?view_as=subscriber" : 1,
      "www.youtube.com/@captainlockpick" : 1,
      "www.youtube.com/@bobbykeyz1263" : 1,
      "www.youtube.com/@marson440" : 2,
      "www.youtube.com/@lockpickingtv" : 2,
      "www.youtube.com/channel/UCCp4RkH5WGovfLcA9o0jt8Q?view_as=subscriber" : 1,
      "www.youtube.com/@claymiller7532" : 1,
      "www.youtube.com/channel/UCHyAg2625ZgGgg2Ounfgyyw?view_as=subscriber" : 1,
      "www.youtube.com/@reinderstegen" : 1,
      "www.youtube.com/channel/UC4FJ9pohHy803O4x_DFs6sA?view_as=subscriber" : 1,
      "www.youtube.com/channel/UCKdlgO_jR6G5Zf2b3rWRdEA" : 1,
      "www.youtube.com/channel/UCAc5qoOTWW-7VTo8nZqGJLA?view_as=subscriber" : 1,
      "www.youtube.com/@thenixxed" : 1,
      "www.youtube.com/channel/UCBGVa07P4ofJ8HaCzAtAB4A?view_as=subscriber" : 1,
      "www.youtube.com/channel/UChGzhXlxNpNyEw6apxdih1w?view_as=subscriber" : 1,
      "www.youtube.com/channel/UCHEPEHbo6kAxsxvIePE9kRw" : 6,
      "www.youtube.com/channel/UCBSesEUOjcn4_CW_-q5lImA?view_as=subscriber" : 1,
      "www.youtube.com/@yabende" : 1,
      "www.youtube.com/@picksmith122" : 2,
      "www.youtube.com/channel/UCsZDdTLANRUuOYelmh4TJCw?view_as=subscriber" : 1,
      "www.youtube.com/channel/UCsvr-zYHwi1FmHp8ZE1WQIQ?view_as=subscriber" : 1,
      "www.youtube.com/@averagelifeofprince7871" : 2,
      "www.youtube.com/channel/UCmBrQYJLqkxLGhYSX0LRyUQ?view_as=subscriber" : 1,
      "www.youtube.com/channel/UCZxkC_15-n8bJHZ0JZxk_pg?view_as=subscriber" : 1,
      "www.youtube.com/channel/UClQWElRptoG-dssHtO9AArQ?view_as=subscriber" : 1,
      "www.youtube.com/channel/UCpYG4aQaPzdiCSVvFHf6sKA?view_as=subscriber" : 1,
      "www.youtube.com/channel/UCrpkIsfVR99CbRB7zVSzulg?view_as=subscriber" : 1,
      "www.youtube.com/@_least7808" : 2,
      "www.youtube.com/@chriscapune7873" : 1,
      "www.youtube.com/@donotduplicate" : 1,
      "www.youtube.com/channel/UCU9Hwfmn-H8PHD874kTMMAw?view_as=subscriber" : 1,
      "www.youtube.com/@georgiajim2260" : 1,
      "www.youtube.com/@cajunlockpick8318" : 1,
      "lpubelts.com" : 5,
      "www.reddit.com/r/lockpicking/" : 1,
      "www.youtube.com/channel/UCltnYRAdwa9Ty7es4k4VP5A?view_as=subscriber" : 1,
      "www.youtube.com/channel/UCjMYWOs-Wi2spkCONND8xHQ?view_as=subscriber" : 1,
      "www.youtube.com/channel/UCyrgpMw8rL2JXdt0zLPzTLA?view_as=subscriber" : 1,
      "www.youtube.com/channel/UC0uDsWpm4sISpzKlB0XVFDw?view_as=subscriber" : 1,
      "www.youtube.com/channel/UClkrPzzdljmX_LqIh-1Uhdg?view_as=subscriber" : 1,
      "www.youtube.com/@ladylocks" : 1,
      "www.youtube.com/@artichoketwothousand" : 1,
      "www.youtube.com/@amonitordarkly" : 1,
      "www.youtube.com/@axelpanic" : 1,
      "www.youtube.com/@norlin76" : 1,
      "www.youtube.com/channel/UCSCUS_rVVks_NKookFW9m4A?view_as=subscriber" : 1,
      "www.youtube.com/@thecompguy" : 2,
      "www.youtube.com/@loose-shirt6551" : 1,
      "www.youtube.com/channel/UCJ8vYSynDrUp72PoGqPCjhg?view_as=subscriber" : 1,
      "www.youtube.com/watch?v=uumypY2NcQM" : 1,
      "www.youtube.com/channel/UCZjDlgup9oX6P4C7PJ3Sgwg?view_as=subscriber" : 1,
      "www.youtube.com/channel/UCLh3mi0cpZKLhYuQhoA7K9w?view_as=subscriber" : 1,
      "www.youtube.com/@tonysansan" : 3,
      "www.youtube.com/channel/UCvja5R4RQtefsk38b726piQ?view_as=subscriber" : 1
   },
   "metadata" : {
      "timezone" : "EDT",
      "updatedDateTime" : "2024-06-17T17:59:47"
   },
   "firstVistsLastSevenDays" : {
      "data" : [],
      "columns" : [
         {
            "align" : "left",
            "id" : "country",
            "name" : "Country"
         },
         {
            "name" : "First Visit",
            "id" : "firstVisit",
            "align" : "center"
         },
         {
            "name" : "Visits",
            "align" : "center",
            "id" : "visits"
         }
      ],
      "title" : "",
      "countryCount" : 0
   },
   "screenWidths" : {
      "data" : [
         {
            "width" : 390,
            "welcomeViews" : 60,
            "lockViews" : 9
         },
         {
            "lockViews" : 3,
            "welcomeViews" : 125,
            "width" : 2560
         },
         {
            "width" : 1920,
            "welcomeViews" : 25,
            "lockViews" : 2
         },
         {
            "welcomeViews" : 6,
            "lockViews" : 1,
            "width" : 448
         }
      ],
      "columns" : [
         {
            "align" : "left",
            "id" : "width",
            "name" : "Screen Width"
         },
         {
            "id" : "lockViews",
            "align" : "center",
            "name" : "Lock Views"
         },
         {
            "id" : "welcomeViews",
            "align" : "center",
            "name" : "Welcome Views"
         }
      ],
      "title" : ""
   },
   "popularCountries1" : {
      "columns" : [
         {
            "id" : "rank",
            "align" : "center",
            "name" : "Rank"
         },
         {
            "name" : "Area",
            "id" : "area",
            "align" : "left"
         },
         {
            "name" : "Visits",
            "align" : "center",
            "id" : "visits"
         }
      ],
      "title" : "",
      "data" : [
         {
            "area" : "United States",
            "visits" : 647,
            "rank" : 1
         },
         {
            "visits" : 28,
            "rank" : 2,
            "area" : "Germany"
         },
         {
            "area" : "United Kingdom",
            "rank" : 3,
            "visits" : 19
         },
         {
            "visits" : 13,
            "rank" : 4,
            "area" : "Australia"
         },
         {
            "area" : "Netherlands",
            "visits" : 11,
            "rank" : 5
         },
         {
            "area" : "Canada",
            "rank" : 6,
            "visits" : 7
         }
      ]
   },
   "pageTracking" : {
      "data" : [
         {
            "videoPlayer" : 0,
            "openURL" : 0,
            "other" : 0,
            "page" : 31,
            "date" : "06/03/24",
            "videos" : 0,
            "error" : 0,
            "about" : 0,
            "contact" : 0,
            "channels" : 0,
            "playlist" : 0,
            "pages" : 0,
            "total" : 31
         },
         {
            "total" : 30,
            "pages" : 0,
            "playlist" : 0,
            "channels" : 0,
            "contact" : 0,
            "about" : 0,
            "error" : 10,
            "videos" : 0,
            "date" : "06/04/24",
            "page" : 20,
            "other" : 0,
            "videoPlayer" : 0,
            "openURL" : 0
         },
         {
            "videos" : 0,
            "error" : 0,
            "about" : 0,
            "openURL" : 0,
            "videoPlayer" : 0,
            "other" : 0,
            "page" : 13,
            "date" : "06/05/24",
            "channels" : 0,
            "playlist" : 0,
            "pages" : 0,
            "total" : 13,
            "contact" : 0
         },
         {
            "about" : 0,
            "videos" : 0,
            "error" : 2,
            "page" : 18,
            "date" : "06/06/24",
            "openURL" : 0,
            "videoPlayer" : 0,
            "other" : 0,
            "playlist" : 0,
            "pages" : 0,
            "total" : 20,
            "channels" : 0,
            "contact" : 0
         },
         {
            "pages" : 9,
            "playlist" : 7,
            "total" : 107,
            "channels" : 19,
            "contact" : 0,
            "about" : 0,
            "videos" : 29,
            "error" : 0,
            "page" : 2,
            "date" : "06/07/24",
            "openURL" : 5,
            "videoPlayer" : 36,
            "other" : 0
         },
         {
            "about" : 0,
            "videos" : 32,
            "error" : 0,
            "page" : 0,
            "date" : "06/08/24",
            "videoPlayer" : 38,
            "openURL" : 5,
            "other" : 14,
            "playlist" : 6,
            "pages" : 18,
            "total" : 157,
            "channels" : 44,
            "contact" : 0
         },
         {
            "total" : 341,
            "pages" : 26,
            "playlist" : 7,
            "channels" : 54,
            "contact" : 1,
            "about" : 0,
            "error" : 0,
            "videos" : 99,
            "date" : "06/09/24",
            "page" : 0,
            "other" : 15,
            "videoPlayer" : 112,
            "openURL" : 27
         },
         {
            "error" : 0,
            "videos" : 29,
            "about" : 0,
            "other" : 0,
            "videoPlayer" : 30,
            "openURL" : 1,
            "date" : "06/10/24",
            "page" : 0,
            "channels" : 23,
            "total" : 89,
            "playlist" : 0,
            "pages" : 6,
            "contact" : 0
         },
         {
            "other" : 0,
            "openURL" : 1,
            "videoPlayer" : 7,
            "date" : "06/11/24",
            "page" : 0,
            "error" : 0,
            "videos" : 6,
            "about" : 0,
            "contact" : 0,
            "channels" : 0,
            "total" : 14,
            "playlist" : 0,
            "pages" : 0
         },
         {
            "channels" : 12,
            "total" : 102,
            "playlist" : 4,
            "pages" : 6,
            "contact" : 1,
            "error" : 0,
            "videos" : 36,
            "about" : 0,
            "other" : 0,
            "openURL" : 1,
            "videoPlayer" : 42,
            "date" : "06/12/24",
            "page" : 0
         },
         {
            "date" : "06/13/24",
            "page" : 0,
            "other" : 0,
            "videoPlayer" : 80,
            "openURL" : 5,
            "about" : 0,
            "error" : 0,
            "videos" : 70,
            "contact" : 5,
            "total" : 259,
            "playlist" : 8,
            "pages" : 19,
            "channels" : 72
         },
         {
            "contact" : 0,
            "playlist" : 3,
            "pages" : 6,
            "total" : 112,
            "channels" : 9,
            "page" : 0,
            "date" : "06/14/24",
            "videoPlayer" : 7,
            "openURL" : 82,
            "other" : 0,
            "about" : 0,
            "videos" : 5,
            "error" : 0
         },
         {
            "other" : 0,
            "openURL" : 1,
            "videoPlayer" : 27,
            "date" : "06/15/24",
            "page" : 0,
            "error" : 0,
            "videos" : 24,
            "about" : 3,
            "contact" : 0,
            "channels" : 11,
            "total" : 66,
            "playlist" : 0,
            "pages" : 0
         },
         {
            "pages" : 0,
            "playlist" : 0,
            "total" : 57,
            "channels" : 25,
            "contact" : 0,
            "about" : 2,
            "videos" : 14,
            "error" : 0,
            "page" : 0,
            "date" : "06/16/24",
            "openURL" : 1,
            "videoPlayer" : 15,
            "other" : 0
         },
         {
            "page" : 84,
            "date" : "total",
            "openURL" : 129,
            "videoPlayer" : 394,
            "other" : 29,
            "about" : 5,
            "videos" : 344,
            "error" : 24,
            "contact" : 7,
            "pages" : 90,
            "playlist" : 35,
            "total" : 2796,
            "channels" : 269
         }
      ],
      "columns" : [
         {
            "name" : "Date",
            "align" : "left",
            "id" : "date"
         },
         {
            "align" : "center",
            "id" : "total",
            "name" : "Total"
         },
         {
            "id" : "videoPlayer",
            "align" : "center",
            "name" : "Video Player"
         },
         {
            "name" : "Videos",
            "id" : "videos",
            "align" : "center"
         },
         {
            "id" : "channels",
            "align" : "center",
            "name" : "Channels"
         },
         {
            "name" : "Open URL",
            "id" : "openURL",
            "align" : "center"
         },
         {
            "id" : "pages",
            "align" : "center",
            "name" : "Pages"
         },
         {
            "id" : "page",
            "align" : "center",
            "name" : "Page"
         },
         {
            "align" : "center",
            "id" : "playlist",
            "name" : "Playlist"
         },
         {
            "id" : "other",
            "align" : "center",
            "name" : "Other"
         },
         {
            "id" : "error",
            "align" : "center",
            "name" : "Error"
         },
         {
            "name" : "Contact",
            "align" : "center",
            "id" : "contact"
         },
         {
            "name" : "About",
            "id" : "about",
            "align" : "center"
         },
         {
            "align" : "center",
            "id" : "error",
            "name" : "Error"
         },
         {
            "name" : "Total",
            "align" : "center",
            "id" : "total"
         }
      ],
      "title" : ""
   }
}
